…
Some of what you can do with lvmisc.

``` r
library(lvmisc)
library(dplyr)

# Compute body mass index (BMI) and categorize it
starwars %>%
  select(name, birth_year, mass, height) %>%
  mutate(
    BMI = bmi(mass, height / 100),
    BMI_category = bmi_cat(BMI)
  )
#> # A tibble: 87 x 6
#>    name               birth_year  mass height   BMI BMI_category    
#>    <chr>                   <dbl> <dbl>  <int> <dbl> <fct>           
#>  1 Luke Skywalker           19      77    172  26.0 Overweight      
#>  2 C-3PO                   112      75    167  26.9 Overweight      
#>  3 R2-D2                    33      32     96  34.7 Obesity class I 
#>  4 Darth Vader              41.9   136    202  33.3 Obesity class I 
#>  5 Leia Organa              19      49    150  21.8 Normal weight   
#>  6 Owen Lars                52     120    178  37.9 Obesity class II
#>  7 Beru Whitesun lars       47      75    165  27.5 Overweight      
#>  8 R5-D4                    NA      32     97  34.0 Obesity class I 
#>  9 Biggs Darklighter        24      84    183  25.1 Overweight      
#> 10 Obi-Wan Kenobi           57      77    182  23.2 Normal weight   
#> # … with 77 more rows
…
