Leave-one-out cross-validation — loo_cv • lvmisc
…
"none": Returns just the ".actual" and `".predicted" columns.

    Value

Returns an object of class lvmisc_cv. A tibble containing the
".actual" and ".predicted" columns.

    Examples

mtcars$car <- row.names(mtcars)
m <- stats::lm(disp ~ mpg, mtcars)
loo_cv(m, mtcars, car, keep = "used")
#> # A tibble: 32 × 3
#>    car                 .actual .predicted
#>    <chr>                 <dbl>      <dbl>
#>  1 Toyota Corolla         71.1     -30.3 
#>  2 Fiat 128               78.7       3.75
#>  3 Merc 240D             147.      156.  
#>  4 Porsche 914-2         120.      128.  
#>  5 Cadillac Fleetwood    472       390.  
#>  6 Hornet Sportabout     360       251.  
#>  7 Mazda RX4             160       217.  
#>  8 Mazda RX4 Wag         160       217.  
#>  9 Lincoln Continental   460       392.  
#> 10 Merc 280C             168.      274.  
#> # … with 22 more rows
…
