Working with models • lvmisc
…
Model cross-validation

The cross-validation of a model is a way to assess how the results of a statistical model will generalize to an independent data set, but without the burden of collecting more data. At the moment, the only cross-valitation method available is the leave-one-out. Also, the only model classes supported are lm and lmerMod, but more cross-validation methods and classes will be implemented in the future.

EXPLAIN BRIEFLY HOW THE LOOCV WORKS

We will now build a linear model to demonstrate the cross-validation with the loo_cv() function.

library(tibble)
# Put the rownames into a column to treat eat row as a "subject" (car) in
# the leave-one-out cross-validation
mtcars <- as_tibble(mtcars, rownames = "car")
m <- lm(disp ~ mpg, mtcars)
loo_cv(model = m, data = mtcars, id = car, keep = "used")
#> # A tibble: 32 x 3
#>    car               .actual .predicted
#>    <chr>               <dbl>      <dbl>
#>  1 Mazda RX4            160        217.
#>  2 Mazda RX4 Wag        160        217.
#>  3 Datsun 710           108        186.
#>  4 Hornet 4 Drive       258        206.
#>  5 Hornet Sportabout    360        251.
#>  6 Valiant              225        267.
#>  7 Duster 360           360        330.
#>  8 Merc 240D            147.       156.
#>  9 Merc 230             141.       185.
#> 10 Merc 280             168.       249.
#> # … with 22 more rows
…
